<svg width="16" height="17" viewBox="0 0 16 17" fill="none" xmlns="http://www.w3.org/2000/svg">
<path d="M9.272 7.584H15.64V9.856H9.272V16.448H6.968V9.856H0.6V7.584H6.968V0.959999H9.272V7.584Z" fill="#36383D"/>
</svg>
