<svg width="14" height="12" viewBox="0 0 14 12" fill="none" xmlns="http://www.w3.org/2000/svg">
<path d="M12.8377 6.65976C13.169 6.28236 13.169 5.71785 12.8377 5.34045L12.2771 4.70174C12.096 4.49535 12.0077 4.22354 12.0329 3.95009L12.1111 3.10474C12.1572 2.60516 11.826 2.14871 11.3368 2.03758L10.5046 1.84855C10.2373 1.78782 10.0066 1.61999 9.86649 1.38431L9.43155 0.652507C9.17511 0.221034 8.63855 0.0465097 8.17734 0.244556L7.39461 0.58067C7.14269 0.68885 6.85739 0.68885 6.60547 0.58067L5.82274 0.244556C5.36153 0.0465097 4.82498 0.221035 4.56853 0.652508L4.13439 1.38296C3.99385 1.61943 3.7621 1.78757 3.4937 1.84779L2.66607 2.03349C2.17556 2.14355 1.84299 2.60065 1.88924 3.10123L1.96723 3.94531C1.99244 4.21814 1.90459 4.48937 1.72421 4.69562L1.16014 5.34061C0.830018 5.71808 0.830519 6.28169 1.16131 6.65857L1.72304 7.29858C1.90413 7.5049 1.99244 7.77661 1.96725 8.04998L1.88879 8.9015C1.84277 9.401 2.17392 9.8573 2.66307 9.96841L3.49547 10.1575C3.76282 10.2182 3.99352 10.3861 4.1336 10.6217L4.56741 11.3516C4.82434 11.7839 5.36231 11.9582 5.82389 11.7586L6.60454 11.4211C6.85699 11.312 7.14325 11.3116 7.39596 11.4201L8.17734 11.7557C8.63855 11.9537 9.17511 11.7792 9.43155 11.3477L9.86649 10.6159C10.0066 10.3802 10.2373 10.2124 10.5046 10.1517L11.3368 9.96263C11.826 9.8515 12.1572 9.39505 12.1111 8.89547L12.0329 8.05012C12.0077 7.77667 12.096 7.50486 12.2771 7.29847L12.8377 6.65976ZM5.83337 8.91677L3.50004 6.58344L4.32254 5.76094L5.83337 7.26594L9.67754 3.42177L10.5 4.2501L5.83337 8.91677Z" fill="#00AE4D"/>
</svg>
